# Fdb version 3
["biber main"] 1578407714 "main.bcf" "main.bbl" "main" 1578407740
  "main.bcf" 1578407740 103728 49a6319bf26dffae588b16aefd050154 "xelatex"
  "vedico.bib" 1578407613 20297 dc888ac524bdcbf279f894471d9d1889 ""
  (generated)
  "main.blg"
  "main.bbl"
["xdvipdfmx"] 1578407740 "main.xdv" "main.pdf" "main" 1578407740
  "main.xdv" 1578407740 3848 006f76ee0d22964601c82fbd2b0ba9c5 "xelatex"
  (generated)
  "main.pdf"
["xelatex"] 1578407738 "main.tex" "main.xdv" "main" 1578407740
  "/dev/null" 1575795576 0 d41d8cd98f00b204e9800998ecf8427e ""
  "/usr/share/texmf-dist/fonts/map/fontname/texfonts.map" 1572595918 3332 103109f5612ad95229751940c61aada0 ""
  "/usr/share/texmf-dist/fonts/tfm/adobe/zapfding/pzdr.tfm" 1572595918 1528 f853c4d1b4e0550255e02831fdc8496f ""
  "/usr/share/texmf-dist/fonts/tfm/public/cm/cmr10.tfm" 1572595918 1296 45809c5a464d5f32c8f98ba97c1bb47f ""
  "/usr/share/texmf-dist/tex/generic/babel-portuges/portuges.ldf" 1572595918 6605 2bd2937f1ce929b4a1367cc2d320364e ""
  "/usr/share/texmf-dist/tex/generic/babel/babel.def" 1572595918 81804 3bb5472a03aeb22f281905fcc1b735b2 ""
  "/usr/share/texmf-dist/tex/generic/babel/babel.sty" 1572595918 19267 b3fa1edb8df025e71f6c509aae11febb ""
  "/usr/share/texmf-dist/tex/generic/babel/switch.def" 1572595918 14543 c96dc306f16879b3fe9b42eccb82621a ""
  "/usr/share/texmf-dist/tex/generic/babel/txtbabel.def" 1572595918 5178 5b21c28f495420030a8aa1a19d21f35f ""
  "/usr/share/texmf-dist/tex/generic/babel/xebabel.def" 1572595918 10321 f78cc01f8ccaa0b5f0477bfdf39bd8cb ""
  "/usr/share/texmf-dist/tex/generic/ifxetex/ifxetex.sty" 1572595918 1458 43ab4710dc82f3edeabecd0d099626b2 ""
  "/usr/share/texmf-dist/tex/generic/oberdiek/gettitlestring.sty" 1572595918 8237 3b62ef1f7e2c23a328c814b3893bc11f ""
  "/usr/share/texmf-dist/tex/generic/oberdiek/hobsub-generic.sty" 1572595918 185392 ed78c0cbc4fc8c3af82e7bffbdeeb1a9 ""
  "/usr/share/texmf-dist/tex/generic/oberdiek/hobsub-hyperref.sty" 1572595918 70864 bcd5b216757bd619ae692a151d90085d ""
  "/usr/share/texmf-dist/tex/generic/oberdiek/ifluatex.sty" 1572595918 7324 2310d1247db0114eb4726807c8837a0e ""
  "/usr/share/texmf-dist/tex/generic/oberdiek/ifpdf.sty" 1572595918 1300 96620a7d94bc0ceb261d968770ce8315 ""
  "/usr/share/texmf-dist/tex/generic/oberdiek/se-ascii-print.def" 1572595918 3154 688330b6ca706e672a9310fc1a549476 ""
  "/usr/share/texmf-dist/tex/generic/oberdiek/stringenc.sty" 1572595918 21411 4c6135fd98dd4f5499becbfc9a323deb ""
  "/usr/share/texmf-dist/tex/generic/unicode-data/CaseFolding.txt" 1572595918 82624 900e76da1d822a160fd6b8c0b1d70094 ""
  "/usr/share/texmf-dist/tex/generic/unicode-data/SpecialCasing.txt" 1572595918 16830 e517fe1ac2549a3f0647fbc1e2b2df83 ""
  "/usr/share/texmf-dist/tex/generic/unicode-data/UnicodeData.txt" 1572595918 1797778 755f6af699f8c8d2d958da411f78f6c6 ""
  "/usr/share/texmf-dist/tex/latex/abntex2/abntex2.cls" 1572570904 36565 62daeb8355986ac2d2d65f9590c4e995 ""
  "/usr/share/texmf-dist/tex/latex/base/ifthen.sty" 1572595918 5159 069c1682fef6225a1e2967ca0fe174f6 ""
  "/usr/share/texmf-dist/tex/latex/biblatex-abnt/abnt.bbx" 1572567841 67118 5c7ff36f139b6297d9109ae084a3f5ce ""
  "/usr/share/texmf-dist/tex/latex/biblatex-abnt/abnt.cbx" 1572567841 21191 75f15272da6aadb050c330074dbb10df ""
  "/usr/share/texmf-dist/tex/latex/biblatex-abnt/brazil-abnt.lbx" 1572567841 741 46e1a8ffdbf5f965052f2be69f4c9271 ""
  "/usr/share/texmf-dist/tex/latex/biblatex-abnt/brazilian-abnt.lbx" 1572567841 16291 0792e45b745fcec8c8a65db1e8e9050e ""
  "/usr/share/texmf-dist/tex/latex/biblatex/bbx/standard.bbx" 1572567841 25703 d3ef9d5e51205b85b7c5803f5bc4945e ""
  "/usr/share/texmf-dist/tex/latex/biblatex/biblatex.cfg" 1572567841 69 249fa6df04d948e51b6d5c67bea30c42 ""
  "/usr/share/texmf-dist/tex/latex/biblatex/biblatex.def" 1572567841 89841 f62b06d56749b219e24521443b5d62fa ""
  "/usr/share/texmf-dist/tex/latex/biblatex/biblatex.sty" 1572567841 486351 35bd8b4d043ca2e145d6acbaf9bbccc3 ""
  "/usr/share/texmf-dist/tex/latex/biblatex/blx-compat.def" 1572567841 13136 44dd5518476508a5daf59afd6ef412e0 ""
  "/usr/share/texmf-dist/tex/latex/biblatex/blx-dm.def" 1572567841 31423 d09ac6e211af72fef55df039a2b3c3d6 ""
  "/usr/share/texmf-dist/tex/latex/biblatex/blx-unicode.def" 1572567841 3288 63bd983a05276add4a914f97aa57362e ""
  "/usr/share/texmf-dist/tex/latex/biblatex/cbx/authoryear-comp.cbx" 1572567841 8737 e466b708437b92cb489e31ba51ec68cb ""
  "/usr/share/texmf-dist/tex/latex/biblatex/lbx/brazil.lbx" 1572567841 128 ce50470856090a2801a4487cd52e652b ""
  "/usr/share/texmf-dist/tex/latex/biblatex/lbx/brazilian.lbx" 1572567841 28811 24373c19aa324cc8b9f382d4327954b4 ""
  "/usr/share/texmf-dist/tex/latex/enumitem/enumitem.sty" 1572592815 51697 f8f08183cd2080d9d18a41432d651dfb ""
  "/usr/share/texmf-dist/tex/latex/etoolbox/etoolbox.sty" 1572595918 45259 743c52a37a6e5ed83cfe0e128b2da10d ""
  "/usr/share/texmf-dist/tex/latex/graphics/keyval.sty" 1572595918 2590 3aa06f747eb7e19c8d68947f1828fd06 ""
  "/usr/share/texmf-dist/tex/latex/hyperref/hxetex.def" 1572595918 45238 ad1fe9c4138c653495a15384f3ce88ad ""
  "/usr/share/texmf-dist/tex/latex/hyperref/hyperref.sty" 1572595918 237978 e4178d76d356458ee5b5bd9824c0b5ad ""
  "/usr/share/texmf-dist/tex/latex/hyperref/nameref.sty" 1572595918 13244 a88fa0a3a6ad5b15d16d610d96a714c3 ""
  "/usr/share/texmf-dist/tex/latex/hyperref/pd1enc.def" 1572595918 14125 9a4c1cce42012c8e8ca01d29ccf79db0 ""
  "/usr/share/texmf-dist/tex/latex/hyperref/puenc.def" 1572595918 122438 1738d75f4d3949de5c376d48e2f2bb7e ""
  "/usr/share/texmf-dist/tex/latex/ifetex/ifetex.sty" 1572595918 1584 2696473ec8e751e1848d791d84b1e6e2 ""
  "/usr/share/texmf-dist/tex/latex/l3backend/l3backend-xdvipdfmx.def" 1572595918 24128 24a2276ee777b632b9d56187dc129fc4 ""
  "/usr/share/texmf-dist/tex/latex/l3kernel/expl3-code.tex" 1572595918 1018098 68ee75e58b3e6c647f137094569be036 ""
  "/usr/share/texmf-dist/tex/latex/l3kernel/expl3.sty" 1572595918 4381 bb0468277e5fe92757223d98f2cad58e ""
  "/usr/share/texmf-dist/tex/latex/l3kernel/l3deprecation.def" 1572595918 9892 1ec016acc4d32bf498c20738383470b5 ""
  "/usr/share/texmf-dist/tex/latex/l3packages/xparse/xparse.sty" 1572595918 81717 03294ce0fabc3e7b7749bf6850c22be8 ""
  "/usr/share/texmf-dist/tex/latex/latexconfig/hyperref.cfg" 1572595918 235 6031e5765137be07eed51a510b2b8fb7 ""
  "/usr/share/texmf-dist/tex/latex/logreq/logreq.def" 1572567841 1620 fb1c32b818f2058eca187e5c41dfae77 ""
  "/usr/share/texmf-dist/tex/latex/logreq/logreq.sty" 1572567841 6187 b27afc771af565d3a9ff1ca7d16d0d46 ""
  "/usr/share/texmf-dist/tex/latex/memoir/mem10.clo" 1572595918 4019 74ecca2f9aef49f5bb757cca2e25a61c ""
  "/usr/share/texmf-dist/tex/latex/memoir/memhfixc.sty" 1572595918 11326 d0078f6d29fb198095ddc2651db4ce20 ""
  "/usr/share/texmf-dist/tex/latex/memoir/memoir.cls" 1572595918 408598 47c2a4c3d617c6e8ffc522b974f8af70 ""
  "/usr/share/texmf-dist/tex/latex/oberdiek/auxhook.sty" 1572595918 3834 4363110eb0ef1eb2b71c8fcbcdb6c357 ""
  "/usr/share/texmf-dist/tex/latex/oberdiek/bkm-dvipdfm.def" 1572595918 5247 6c4da4fa3f39088f6f423cfbb7f9b4ec ""
  "/usr/share/texmf-dist/tex/latex/oberdiek/bookmark.sty" 1572595918 18926 5b6b8a7ae062fc5fb5c5415ad8424755 ""
  "/usr/share/texmf-dist/tex/latex/oberdiek/kvoptions.sty" 1572595918 22417 1d9df1eb66848aa31b18a593099cf45c ""
  "/usr/share/texmf-dist/tex/latex/oberdiek/rerunfilecheck.sty" 1572595918 9581 023642318cef9f4677efe364de1e2a27 ""
  "/usr/share/texmf-dist/tex/latex/textcase/textcase.sty" 1572595918 2156 a092fd3ecd0a13fd597725ee6894b032 ""
  "/usr/share/texmf-dist/tex/latex/tools/array.sty" 1572595918 12560 4a5687b6718c08af61b1ad834ba27b87 ""
  "/usr/share/texmf-dist/tex/latex/tools/calc.sty" 1572595918 10216 54c740cb9d999378b16df7e5c92c17a0 ""
  "/usr/share/texmf-dist/tex/latex/tools/dcolumn.sty" 1572595918 2759 0891d26d2da898acb25c00616d2b9a3f ""
  "/usr/share/texmf-dist/tex/latex/tools/delarray.sty" 1572595918 2158 25a77cdd04e5b2b848f922213e1ae848 ""
  "/usr/share/texmf-dist/tex/latex/tools/tabularx.sty" 1572595918 7149 0761e0046ae54b8c3b512ab8e07fef1c ""
  "/usr/share/texmf-dist/tex/latex/url/url.sty" 1572595918 12796 8edb7d69a20b857904dd0ea757c14ec9 ""
  "/usr/share/texmf-dist/tex/latex/xpatch/xpatch.sty" 1572592815 8322 5f9c642edadff4ce819c39eb7dccea61 ""
  "/usr/share/texmf-dist/tex/plain/ifetex/ifetex.tex" 1572595918 1178 13842cd1b714a921af7920503db5625a ""
  "/usr/share/texmf-dist/web2c/texmf.cnf" 1572595918 33301 a3134070eacafb10b1f371612ce2650d ""
  "/var/lib/texmf/web2c/xetex/xelatex.fmt" 1575985421 4126411 3146da8ba3a10c92f2fe6e2b8c865348 ""
  "main.aux" 1578407740 1787 bab07ab7a2706cedaeeb658730a438b1 "xelatex"
  "main.bbl" 1578407715 1794 12e74a858d9d70efab6ee2ab18149d91 "biber main"
  "main.run.xml" 1578407740 2474 7b5e2a800aa78a2bbc64f56a17fc5257 "xelatex"
  "main.tex" 1578407732 329 0d45046f2948018e463f006227e52f6a ""
  (generated)
  "main.run.xml"
  "main.aux"
  "main.xdv"
  "main.bcf"
  "main.log"
